<?xml version="1.0" encoding="UTF-8"?>
<robot generator="Robot 5.0.1 (Python 3.11.4 on win32)" generated="20230921 14:15:39.540" rpa="false" schemaversion="3">
<suite id="s1" name="Trim-Eosl" source="D:\Automate_TRIM\trim-eosl">
<suite id="s1-s1" name="TestDemo" source="D:\Automate_TRIM\trim-eosl\TestDemo">
<suite id="s1-s1-s1" name="apiUpload" source="D:\Automate_TRIM\trim-eosl\TestDemo\apiUpload.robot">
<test id="s1-s1-s1-t1" name="Upload XLSX File Test" line="11">
<kw name="Get File For Streaming Upload" library="RequestsLibrary">
<var>${file}</var>
<arg>${FILE_PATH}</arg>
<doc>Opens and returns a file descriptor of a specified file to be passed as ``data`` parameter
to other requests keywords.</doc>
<msg timestamp="20230921 14:15:39.767" level="INFO">${file} = &lt;_io.BufferedReader name='D:\\Automate_TRIM\\trim-eosl\\TestDemo\\DataTestJson.xlsx'&gt;</msg>
<status status="PASS" starttime="20230921 14:15:39.766" endtime="20230921 14:15:39.767"/>
</kw>
<kw name="Create Dictionary" library="BuiltIn">
<var>${files}</var>
<arg>file=${file}</arg>
<arg>operator_format=false</arg>
<arg>Content-Type=multipart/form-data</arg>
<doc>Creates and returns a dictionary based on the given ``items``.</doc>
<msg timestamp="20230921 14:15:39.770" level="INFO">${files} = {'file': &lt;_io.BufferedReader name='D:\\Automate_TRIM\\trim-eosl\\TestDemo\\DataTestJson.xlsx'&gt;, 'operator_format': 'false', 'Content-Type': 'multipart/form-data'}</msg>
<status status="PASS" starttime="20230921 14:15:39.769" endtime="20230921 14:15:39.770"/>
</kw>
<kw name="Create Dictionary" library="BuiltIn">
<var>${headers}</var>
<arg>Authorization=xxxxxxxxxxxxxxxxxxxxxxxxxxx</arg>
<arg>Accept=*/*</arg>
<arg>Content-Type=multipart/form-data</arg>
<doc>Creates and returns a dictionary based on the given ``items``.</doc>
<msg timestamp="20230921 14:15:39.772" level="INFO">${headers} = {'Authorization': 'xxxxxxxxxxxxxxxxxxxxxxxxxxx', 'Accept': '*/*', 'Content-Type': 'multipart/form-data'}</msg>
<status status="PASS" starttime="20230921 14:15:39.771" endtime="20230921 14:15:39.772"/>
</kw>
<kw name="Create Session" library="RequestsLibrary">
<arg>mySession</arg>
<arg>${API_URL}</arg>
<arg>verify=false</arg>
<doc>Create Session: create a HTTP session to a server</doc>
<msg timestamp="20230921 14:15:39.773" level="INFO">Creating Session using : alias=mySession, url=https://236b2dea-89a5-4955-bed9-d250d3ef7a9d.mock.pstmn.io, headers={},                     cookies={}, auth=None, timeout=None, proxies=None, verify=False,                     debug=0 </msg>
<status status="PASS" starttime="20230921 14:15:39.773" endtime="20230921 14:15:39.774"/>
</kw>
<kw name="POST On Session" library="RequestsLibrary">
<var>${response}</var>
<arg>mySession</arg>
<arg>/upload</arg>
<arg>headers=${headers}</arg>
<arg>data=${files}</arg>
<doc>Sends a POST request on a previously created HTTP Session.</doc>
<msg timestamp="20230921 14:15:41.941" level="INFO">POST Request : url=https://236b2dea-89a5-4955-bed9-d250d3ef7a9d.mock.pstmn.io/upload 
 path_url=/upload 
 headers={'User-Agent': 'python-requests/2.31.0', 'Accept-Encoding': 'gzip, deflate', 'Accept': '*/*', 'Connection': 'keep-alive', 'Authorization': 'xxxxxxxxxxxxxxxxxxxxxxxxxxx', 'Content-Type': 'multipart/form-data', 'Content-Length': '24704'} 
 body=file=PK%03%04%14%00%06%00%08%00%00%00%21%00A7%82%CFn%01%00%00%04%05%00%00%13%00%08%02%5BContent_Types%5D.xml+%A2%04%02%28%A0%00%02%00%00%00%00%00%00%00%00%00%00%00%00%00%00%00%00%00%00%00%00%00%00%00%00%00%00%00%00%00%00%00%00%00%00%00%00%00%00%00%00%00%00%00%00%00%00%00%00%00%00%00%00%00%00%00%00%00%00%00%00%00%00%00%00%00%00%00%00%00%00%00%00%00%00%00%00%00%00%00%00%00%00%00%00%00%00%00%00%00%00%00%00%00%00%00%00%00%00%00%00%00%00%00%00%00%00%00%00%00%00%00%00%00%00%00%00%00%00%00%00%00%00%00%00%00%00%00%00%00%00%00%00%00%00%00%00%00%00%00%00%00%00%00%00%00%00%00%00%00%00%00%00%00%00%00%00%00%00%00%00%00%00%00%00%00%00%00%00%00%00%00%00%00%00%00%00%00%00%00%00%00%00%00%00%00%00%00%00%00%00%00%00%00%00%00%00%00%00%00%00%00%00%00%00%00%00%00%00%00%00%00%00%00%00%00%00%00%00%00%00%00%00%00%00%00%00%00%00%00%00%00%00%00%00%00%00%00%00%00%00%00%00%00%00%00%00%00%00%00%00%00%00%00%00%00%00%00%00%00%00%00%00%00%00%00%00%00%00%00%00%00%00%00%00%00%00%00%00%00%00%00%00%00%00%00%00%00%00%00%00%00%00%00%00%00%00%00%00%00%00%00%00%00%00%00%00%00%00%00%00%00%00%00%00%00%00%00%00%00%00%00%00%00%00%00%00%00%00%00%00%00%00%00%00%00%00%00%00%00%00%00%00%00%00%00%00%00%00%00%00%00%00%00%00%00%00%00%00%00%00%00%00%00%00%00%00%00%00%00%00%00%00%00%00%00%00%00%00%00%00%00%00%00%00%00%00%00%00%00%00%00%00%00%00%00%00%00%00%00%00%00%00%00%00%00%00%00%00%00%00%00%00%00%00%00%00%00%00%00%00%00%00%00%00%00%00%00%00%00%00%00%00%00%00%00%00%00%00%00%00%00%00%00%00%00%00%00%00%00%00%00%00%00%00%00%00%00%00%00%00%00%00%00%00%00%00%00%00%00%00%00%00%00%00%00%00%00%00%00%00%00%00%00%00%00%00%00%00%00%00%00%00%00%00%00%00%00%00%00%00%00%00%00%00%00%00%00%00%00%00%00%00%ACT%C9n%C20%10%BDW%EA%3FD%BEV%89%A1%87%AA%AA%08%1C%BA%1C%5B%24%E8%07%98x%92X%24%B6%E5%19%28%FC%7D%27fQU%B1%08%C1%25Ql%CF%5B%26%F3%3C%18%AD%DA%26YB%40%E3l.%FAYO%24%60%0B%A7%8D%ADr%F1%3D%FDH%9FE%82%A4%ACV%8D%B3%90%8B5%A0%18%0D%EF%EF%06%D3%B5%07L%B8%DAb.j%22%FF%22%25%165%B4%0A&amp;file=3%E7%C1%F2N%E9B%AB%88%3FC%25%BD%2A%E6%AA%02%F9%D8%EB%3D%C9%C2Y%02K%29u%18b8x%83R-%1AJ%DEW%BC%BCQ23V%24%AF%9Bs%1DU.%94%F7%8D%29%14%B1P%B9%B4%FA%1FI%EA%CA%D2%14%A0%5D%B1h%19%3AC%1F%40i%AC%01%A8m2%1F%0C3%86%09%10%B11%14%F2+g%80%06%2F%23%DD%BA%CA%B82%0A&amp;file=%C3%DAx%7C%60%EBG%18%BA%9D%E3%AE%B6u_%FC%3B%82%D1%90%8CU%A0O%D5%B2w%B9j%E4%8F%0B%F3%99s%F3%EC4%C8%A5%AD%89-%CAZe%ECN%F7%09%FEx%18e%7C%F5o%2C%A4%F3%17%81%CF%E8+%9E1%90%F1y%BD%84%08s%86%10i%DD%00%DE%BA%ED%11%F4%1Cs%AD%02%E8%09%F1%F4V7%17%F0%17%FB%94%0E%8E%D488%8F%9C%DA%00%97wa%17%91%AE%3A%F5%0C%04%81%0C%ECCrh%D8%F6%8C%1C%F9%AB%DB%0E%DD%9D%A2A%1F%E0%96%F1%0E%1B%FE%02%00%00%FF%FF%03%00PK%03%04%14%00%06%00%08%00%00%00%21%00%B5U0%23%F4%00%00%00L%02%00%00%0B%00%08%02_rels%2F.rels+%A2%04%02%28%A0%00%02%00%00%00%00%00%00%00%00%00%00%00%00%00%00%00%00%00%00%00%00%00%00%00%00%00%00%00%00%00%00%00%00%00%00%00%00%00%00%00%00%00%00%00%00%00%00%00%00%00%00%00%00%00%00%00%00%00%00%00%00%00%00%00%00%00%00%00%00%00%00%00%00%00%00%00%00%00%00%00%00%00%00%00%00%00%00%00%00%00%00%00%00%00%00%00%00%00%00%00%00%00%00%00%00%00%00%00%00%00%00%00%00%00%00%00%00%00%00%00%00%00%00%00%00%00%00%00%00%00%00%00%00%00%00%00%00%00%00%00%00%00%00%00%00%00%00%00%00%00%00%00%00%00%00%00%00%00%00%00%00%00%00%00%00%00%00%00%00%00%00%00%00%00%00%00%00%00%00%00%00%00%00%00%00%00%00%00%00%00%00%00%00%00%00%00%00%00%00%00%00%00%00%00%00%00%00%00%00%00%00%00%00%00%00%00%00%00%00%00%00%00%00%00%00%00%00%00%00%00%00%00%00%00%00%00%00%00%00%00%00%00%00%00%00%00%00%00%00%00%00%00%00%00%00%00%00%00%00%00%00%00%00%00%00%00%00%00%00%00%00%00%00%00%00%00%00%00%00%00%00%00%00%00%00%00%00%00%00%00%00%00%00%00%00%00%00%00%00%00%00%00%00%00%00%00%00%00%00%00%00%00%00%00%00%00%00%00%00%00%00%00%00%00%00%00%00%00%00%00%00%00%00%00%00%00%00%00%00%00%00%00%00%00%00%00%00%00%00%00%00%00%00%00%00%00%00%00%00%00%00%00%00%00%00%00%00%00%00%00%00%00%00%00%00%00%00%00%00%00%00%00%00%00%00%00%00%00%00%00%00%00%00%00%00%00%00%00%00%00%00%00%00%00%00%00%00%00%00%00%00%00%00%00%00%00%00%00%00%00%00%00%00%00%00%00%00%00%00%00%00%00%00%00%00%00%00%00%00%00%00%00%00%00%00%00%00%00%00%00%00%00%00%00%00%00%00%00%00%00%00%00%00%00%00%00%00%00%00%00%00%00%00%00%00%00%00%00%00%00%00%00%00%00%00%00%00%00%00%00%00%00%00%00%00%00%00%00%00%00%00%00%00%00%00%00%00%00%00%00%00%00%00%AC%92MO%C30%0C%86%EFH%FC%87%C8%F7%D5%DD%90%10BKwAH%BB%21T~%80I%DC%0F%B5%8D%A3%24%1B%DD%BF%27%1C%10T%1A%83%03G%7F%BD~%FC%CA%DB%DD%3C%8D%EA%C8%21%F6%E24%AC%8B%12%14%3B%23%B6w%AD%86%97%FAqu%07%2A%26r%96Fq%AC%E1%C4%11v%D5%F5%D5%F6%99GJy%28v%BD%8F%2A%AB%B8%A8%A1K%C9%DF%23F%D3%F1D%B1%10%CF.W%1A%09%13%A5%1C%86%16%3D%99%81Z%C6MY%DEb%F8%AE%01%D5BS%ED%AD%86%B0%B77%A0%EA%93%CF%9B%7F%D7%96%A6%E9%0D%3F%889L%EC%D2%99%15%C8sbg%D9%AE%7C%C8l%21%F5%F9%1AUSh9i%B0b%9Er%3A%22y_dl%C0%F3D%9B%BF%13%FD%7C-N%9C%C8R%224%12%F82%CFG%C7%25%A0%F5%7FZ%B44%F1%CB%9Dy%C47%09%C3%AB%C8%F0%C9%82%8B%1F%A8%DE%01%00%00%FF%FF%03%00PK%03%04%14%00%06%00%08%00%00%00%21%00%A1%3E%C8%D4%D4%02%00%00%AD%06%00%00%0F%00%00%00xl%2Fworkbook.xml%ACU%D1n%9B0%14%7D%9F%B4%7F%40~%A7%60%02%24A%25U%12R%AD%D26E%5D%D7%BET%AA%1Cp%82%15%B0%99m%9ATU%FF%7D%D7%10%92%A6y%E9%DA%A1%C4%C6%5C%FB%F8%9C%7B%0F%E6%FCb%5B%16%D6%23%95%8A%09%1E%23%7C%E6%22%8B%F2Td%8C%AFb%F4%FB%E6%D2%1E+Ki%C23R%08Nc%F4D%15%BA%18%7D%FDr%BE%11r%BD%10bm%01%00W1%CA%B5%AE%22%C7QiNK%A2%CEDE9D%96B%96D%C3P%AE%1CUIJ2%95S%AA%CB%C2%F1%5C7tJ%C28j%11%22%F9%1E%0C%B1%5C%B2%94%26%22%ADK%CAu%0B%22iA4%D0W9%ABT%87V%A6%EF%81%2B%89%5C%D7%95%9D%8A%B2%02%88%05%2B%98~j%40%91U%A6%D1%D5%8A%0BI%16%05%C8%DE%E2%C0%DAJ%F8%85%F0%C7.4%5E%B7%13%84N%B6%2AY%2A%85%12K%7D%06%D0NK%FAD%3Fv%1D%8C%8FR%B0%3D%CD%C1%FB%90%7CG%D2Gfj%B8g%25%C3%0F%B2%0A&amp;file=%F7X%E1%01%0C%BB%9FF%C3%60%AD%C6%2B%11%24%EF%83h%C1%9E%9B%87F%E7KV%D0%DB%D6%BA%16%A9%AA%9F%A44%95%2A%90U%10%A5g%19%D34%8BQ%1F%86bC%0F%0F%40%95%AC%ABI%CD%0A&amp;file=%88za%E8%85%C8%19%ED%ED%3C%970%80%DA%8F%0BM%25%27%9AN%05%D7%60%B5%1D%F5%CF%DA%AA%C1%9E%E6%02Ll%5D%D3%3F5%93%14%DE%1D%B0%10%C8%81%96%A4%11Y%A89%D1%B9U%CB%22F%D3%E8%5E%03u%5B%2FA%D1%FD%2B%C7%91S%7B%FF%83%E7Hj%24%3B+%B3%A5%D2%DE%BF%95%0C%8Cd%D4%F9j%AE%A5%05%F7W%C9w%60%F2%8B%3CB%A6%A1%9E%D9%EEE%BC%82T%E2%DE%03Oe%84%1F%9E%27%3D%3C%09%92%99k%0F%93%A0o%FB%13w%60%0F%06%D3%9E%3D%E8%8D%FB%E3qo%16%8C%2F%C7%2F+F%86Q%2AH%AD%F3%5D%11%0Dt%8C%7C%A8%D8I%E8%07%D9v%11%ECF5%CB%0E4%9E%DD%DDe%9B%FEM%D3%C5%5E%8C%60s%5C%DD2%BAQ%87r%9B%A1%B5%BDc%3C%13%9B%18%D9%D8%03QO%C7%C3M%13%BCc%99%CE%C1%2FC%D7%87%29%ED%B3o%94%ADr%60%8C%83%BEY%07%B66%CCbt%C4%28i%19%5D%C2e%9B%E6%88%91%F3%8ARs0%02%B5%A6%B7xc%E6%84hr%03%06%803%D8%1C%9BM%9A%C1%BE%91%D9E%5Ee%B8%29c%B70%25E%3A%97%96%E9%9A%89C%ECzC3%83n%F5w%A5%9B%1El%C5%80+%F6%DDq%DF%1D%FA%B6%3B%EB%05%B6%3F%18z%F6%C0%EFy%F6%D4O%BCY%D0%9F%25%B3I%60%2Ad%8E%F6%E8%7F%1Cp%8D%BB%A3%EE%9BaX%E6D%EA%1BI%D25%7Ci%AE%E9rB%14X%AA%15%04%7C%C1%91%1Dk%A7%5B5%FA%0B%00%00%FF%FF%03%00PK%03%04%14%00%06%00%08%00%00%00%21%00%81%3E%94%97%F3%00%00%00%BA%02%00%00%1A%00%08%01xl%2F_rels%2Fworkbook.xml.rels+%A2%04%01%28%A0%00%01%00%00%00%00%00%00%00%00%00%00%00%00%00%00%00%00%00%00%00%00%00%00%00%00%00%00%00%00%00%00%00%00%00%00%00%00%00%00%00%00%00%00%00%00%00%00%00%00%00%00%00%00%00%00%00%00%00%00%00%00%00%00%00%00%00%00%00%00%00%00%00%00%00%00%00%00%00%00%00%00%00%00%00%00%00%00%00%00%00%00%00%00%00%00%00%00%00%00%00%00%00%00%00%00%00%00%00%00%00%00%00%00%00%00%00%00%00%00%00%00%00%00%00%00%00%00%00%00%00%00%00%00%00%00%00%00%00%00%00%00%00%00%00%00%00%00%00%00%00%00%00%00%00%00%00%00%00%00%00%00%00%00%00%00%00%00%00%00%00%00%00%00%00%00%00%00%00%00%00%00%00%00%00%00%00%00%00%00%00%00%00%00%00%00%00%00%00%00%00%00%00%00%00%00%00%00%00%00%00%00%00%00%00%00%00%00%00%00%00%00%00%00%00%00%00%00%00%00%00%00%00%00%00%00%00%00%00%00%00%00%00%00%00%00%00%00%00%00%00%00%00%00%00%00%00%00%ACRMK%C40%10%BD%0B%FE%870w%9Bv%15%11%D9t%2F%22%ECU%EB%0F%08%C9%B4%29%DB%26%213~%F4%DF%1B%2A%BA%5DX%D6K%2F%03o%86y%EF%CD%C7v%F75%0E%E2%03%13%F5%C1%2B%A8%8A%12%04z%13l%EF%3B%05o%CD%F3%CD%03%08b%ED%AD%1E%82G%05%13%12%EC%EA%EB%AB%ED%0B%0E%9As%13%B9%3E%92%C8%2C%9E%148%E6%F8%28%25%19%87%A3%A6%22D%F4%B9%D2%864j%CE0u2js%D0%1D%CAMY%DE%CB%B4%E4%80%FA%84S%EC%AD%82%B4%B7%B7+%9A%29f%E5%FF%B9C%DB%F6%06%9F%82y%1F%D1%F3%19%09I%3C%0Dy%00%D1%E8%D4%21%2B%F8%C1E%F6%08%F2%BC%FCfMy%CEk%C1%A3%FA%0C%E5%1C%ABK%1E%AA5%3D%7C%86t+%87%C8G%1F%7F%29%92s%E5%A2%99%BBU%EF%E1tB%FB%CA%29%BF%DB%F2%2C%CB%F4%EFf%E4%C9%C7%D5%DF%00%00%00%FF%FF%03%00PK%03%04%14%00%06%00%08%00%00%00%21%00%B47%F6GV%03%00%00%E4%07%00%00%18%00%00%00xl%2Fworksheets%2Fsheet1.xml%9C%93%DB%8E%DA0%10%86%EF%2B%F5%1D%2C%DF%13%C7%81%B0%21%22%AC%AA%AE%B6%BBwU%8F%D7%C6%99%10%8B8NmsR%D5w%EF%C4%04X%09i%17-%02%CF%90%F1%FF%CD%8C%3D%99%DF%EFuC%B6%60%9D2mAy%14S%02%AD4%A5jW%05%FD%F9%E3q%94Q%E2%BChK%D1%98%16%0A&amp;file=z%00G%EF%17%1F%3F%CCw%C6%AE%5D%0D%E0%09%12ZW%D0%DA%FB.g%CC%C9%1A%B4p%91%E9%A0%C5He%AC%16%1E%FF%DA%15s%9D%05Q%06%91nX%12%C7S%A6%85j%E9%91%90%DB%5B%18%A6%AA%94%84%07%237%1AZ%7F%84Xh%84%C7%FA%5D%AD%3Aw%A2iy%0BN%0B%BB%DEt%23it%87%88%A5j%94%3F%04%28%25Z%E6%CF%AB%D6X%B1l%B0%EF%3D%9F%08I%F6%16%BF%09%FE%C6%A74%E1%F9U%26%AD%A45%CET%3EB2%3B%D6%7C%DD%FE%8C%CD%98%90g%D2u%FF7a%F8%84Y%D8%AA%FE%02%2F%A8%E4%7D%25%F1%F4%CCJ.%B0%F1%3Ba%D33%AC%3F.%9BoTY%D0%BF%F1%F0%19%A1%E5%FD%12_%96S%EC%1F%5D%CCK%857%DCwE%2CT%05%FD%C4%F3%2F%09e%8By%98%9F_%0A&amp;file=v%EE%85O%BCX~%87%06%A4%07%CC%C1%29%E9%C7si%CC%BA%DF%F8%8C%8Fb%24%BA%B0%A1%27%0A&amp;file=%E9%D5%16%3EC%D3%14%F4%89Op%C4%FF%84%24%BD%8F%29%D89%C7K%FF%94%EF1%8C%F4WKJ%A8%C4%A6%F1%DF%CC%EE%09%D4%AA%F6%988%C5F%FBI%C9%CB%C3%038%89%23%8A%A9%A3%24%ED%A9%D24%88%C0%95h%D5%BFk8bb%7F%2CV%95%BEF%2F%8E%26Iz%97q%DCO%E4%C6y%A3%7F%0F%91A%7FT%E2%D5%04%25%DA%DD%10G%F7%15%01%1E%7F%10%A0%3D%0B%A2%24Ky%3A%7D%23%15%1EMP%A2%1D%94Yt%C7%E3%D9%F8%EE%F5%121%1Ath%07%5D%C2%A3%2CM%27%D3%EC%0D%E5tP%A2%BD%ADV%16%CE%F5%3F%00%00%00%FF%FF%00%00%00%FF%FF%8C%D2%D1%0E%82+%14%80%E1Wa%3C%40%08j%96%03%B6L%F39%18%B1ueM%9C%D5%DB%87Z%12%9C.%BAs%F2%E9%3C%FF%91%DB%8B1C%AD%06%25y%7F%BD%A3%5E%60%8A%91%BD%A9%CE%BA%AB%B2%C0%E8A3%A5%CB%F3%B36V%9Bn%108%D9%B0%1CK%AE%27%7B%98%B0%C0%0C%23w%60%DD%DDQ%26%9C%8C%92%13%FD%16%15%144%14G%28X%28j%28%D2P4Pd%A18A%91%87%A2%85b%BB%0A&amp;file=%E2%E2%AC%85%DC%B8%FF%17%9A%B0%C0%E9%DC%26%9A%BC%FA%9C... (set the log level to DEBUG or TRACE to see the full content) 
 </msg>
<msg timestamp="20230921 14:15:41.943" level="INFO">POST Response : url=https://236b2dea-89a5-4955-bed9-d250d3ef7a9d.mock.pstmn.io/upload 
 status=201, reason=Created 
 headers={'Date': 'Thu, 21 Sep 2023 07:15:41 GMT', 'Content-Type': 'text/html; charset=utf-8', 'Content-Length': '0', 'Connection': 'keep-alive', 'x-srv-trace': 'v=1;t=ee1d8898fac8016c', 'x-srv-span': 'v=1;s=4ffcb232de2ad2b2', 'Access-Control-Allow-Origin': '*', 'X-RateLimit-Limit': '120', 'X-RateLimit-Remaining': '119', 'X-RateLimit-Reset': '1695280601', 'ETag': 'W/"0-2jmj7l5rSw0yVb/vlWAYkK/YBwk"', 'Vary': 'Accept-Encoding'} 
 body=None 
 </msg>
<msg timestamp="20230921 14:15:41.943" level="INFO">C:\Users\Lenovo\AppData\Local\Programs\Python\Python311\Lib\site-packages\urllib3\connectionpool.py:1056: InsecureRequestWarning: Unverified HTTPS request is being made to host '236b2dea-89a5-4955-bed9-d250d3ef7a9d.mock.pstmn.io'. Adding certificate verification is strongly advised. See: https://urllib3.readthedocs.io/en/1.26.x/advanced-usage.html#ssl-warnings
  warnings.warn(</msg>
<msg timestamp="20230921 14:15:41.943" level="INFO">${response} = &lt;Response [201]&gt;</msg>
<status status="PASS" starttime="20230921 14:15:39.774" endtime="20230921 14:15:41.943"/>
</kw>
<kw name="Should Be Equal As Strings" library="BuiltIn">
<arg>${response.status_code}</arg>
<arg>201</arg>
<doc>Fails if objects are unequal after converting them to strings.</doc>
<msg timestamp="20230921 14:15:41.946" level="INFO">Argument types are:
&lt;class 'int'&gt;
&lt;class 'str'&gt;</msg>
<status status="PASS" starttime="20230921 14:15:41.945" endtime="20230921 14:15:41.946"/>
</kw>
<doc>Upload XLSX file with parameters and verify 201 response</doc>
<status status="PASS" starttime="20230921 14:15:39.764" endtime="20230921 14:15:41.947"/>
</test>
<status status="PASS" starttime="20230921 14:15:39.578" endtime="20230921 14:15:41.949"/>
</suite>
<status status="PASS" starttime="20230921 14:15:39.570" endtime="20230921 14:15:41.952"/>
</suite>
<status status="PASS" starttime="20230921 14:15:39.545" endtime="20230921 14:15:41.955"/>
</suite>
<statistics>
<total>
<stat pass="1" fail="0" skip="0">All Tests</stat>
</total>
<tag>
</tag>
<suite>
<stat pass="1" fail="0" skip="0" id="s1" name="Trim-Eosl">Trim-Eosl</stat>
<stat pass="1" fail="0" skip="0" id="s1-s1" name="TestDemo">Trim-Eosl.TestDemo</stat>
<stat pass="1" fail="0" skip="0" id="s1-s1-s1" name="apiUpload">Trim-Eosl.TestDemo.apiUpload</stat>
</suite>
</statistics>
<errors>
</errors>
</robot>
